{
    "page": 1,
    "per_page": 15,
    "photos": [
        {
            "id": 1700768,
            "width": 4767,
            "height": 7143,
            "url": "https://www.pexels.com/photo/photo-of-topless-man-and-woman-hugging-each-other-1700768/",
            "photographer": "Ana Maria Moroz",
            "photographer_url": "https://www.pexels.com/@ana-maria-moroz-313906",
            "photographer_id": 313906,
            "avg_color": "#9F9896",
            "src": {
                "original": "https://images.pexels.com/photos/1700768/pexels-photo-1700768.jpeg",
                "large2x": "https://images.pexels.com/photos/1700768/pexels-photo-1700768.jpeg?auto=compress&cs=tinysrgb&dpr=2&h=650&w=940",
                "large": "https://images.pexels.com/photos/1700768/pexels-photo-1700768.jpeg?auto=compress&cs=tinysrgb&h=650&w=940",
                "medium": "https://images.pexels.com/photos/1700768/pexels-photo-1700768.jpeg?auto=compress&cs=tinysrgb&h=350",
                "small": "https://images.pexels.com/photos/1700768/pexels-photo-1700768.jpeg?auto=compress&cs=tinysrgb&h=130",
                "portrait": "https://images.pexels.com/photos/1700768/pexels-photo-1700768.jpeg?auto=compress&cs=tinysrgb&fit=crop&h=1200&w=800",
                "landscape": "https://images.pexels.com/photos/1700768/pexels-photo-1700768.jpeg?auto=compress&cs=tinysrgb&fit=crop&h=627&w=1200",
                "tiny": "https://images.pexels.com/photos/1700768/pexels-photo-1700768.jpeg?auto=compress&cs=tinysrgb&dpr=1&fit=crop&h=200&w=280"
            },
            "liked": false
        },
        {
            "id": 1548274,
            "width": 2592,
            "height": 3872,
            "url": "https://www.pexels.com/photo/naked-woman-1548274/",
            "photographer": "Alexander Krivitskiy",
            "photographer_url": "https://www.pexels.com/@krivitskiy",
            "photographer_id": 314412,
            "avg_color": "#1C1C1C",
            "src": {
                "original": "https://images.pexels.com/photos/1548274/pexels-photo-1548274.jpeg",
                "large2x": "https://images.pexels.com/photos/1548274/pexels-photo-1548274.jpeg?auto=compress&cs=tinysrgb&dpr=2&h=650&w=940",
                "large": "https://images.pexels.com/photos/1548274/pexels-photo-1548274.jpeg?auto=compress&cs=tinysrgb&h=650&w=940",
                "medium": "https://images.pexels.com/photos/1548274/pexels-photo-1548274.jpeg?auto=compress&cs=tinysrgb&h=350",
                "small": "https://images.pexels.com/photos/1548274/pexels-photo-1548274.jpeg?auto=compress&cs=tinysrgb&h=130",
                "portrait": "https://images.pexels.com/photos/1548274/pexels-photo-1548274.jpeg?auto=compress&cs=tinysrgb&fit=crop&h=1200&w=800",
                "landscape": "https://images.pexels.com/photos/1548274/pexels-photo-1548274.jpeg?auto=compress&cs=tinysrgb&fit=crop&h=627&w=1200",
                "tiny": "https://images.pexels.com/photos/1548274/pexels-photo-1548274.jpeg?auto=compress&cs=tinysrgb&dpr=1&fit=crop&h=200&w=280"
            },
            "liked": false
        },
        {
            "id": 3477224,
            "width": 2756,
            "height": 4135,
            "url": "https://www.pexels.com/photo/topless-woman-leaning-on-table-3477224/",
            "photographer": "Neto Soares",
            "photographer_url": "https://www.pexels.com/@netosoares",
            "photographer_id": 1820272,
            "avg_color": "#2E2D44",
            "src": {
                "original": "https://images.pexels.com/photos/3477224/pexels-photo-3477224.jpeg",
                "large2x": "https://images.pexels.com/photos/3477224/pexels-photo-3477224.jpeg?auto=compress&cs=tinysrgb&dpr=2&h=650&w=940",
                "large": "https://images.pexels.com/photos/3477224/pexels-photo-3477224.jpeg?auto=compress&cs=tinysrgb&h=650&w=940",
                "medium": "https://images.pexels.com/photos/3477224/pexels-photo-3477224.jpeg?auto=compress&cs=tinysrgb&h=350",
                "small": "https://images.pexels.com/photos/3477224/pexels-photo-3477224.jpeg?auto=compress&cs=tinysrgb&h=130",
                "portrait": "https://images.pexels.com/photos/3477224/pexels-photo-3477224.jpeg?auto=compress&cs=tinysrgb&fit=crop&h=1200&w=800",
                "landscape": "https://images.pexels.com/photos/3477224/pexels-photo-3477224.jpeg?auto=compress&cs=tinysrgb&fit=crop&h=627&w=1200",
                "tiny": "https://images.pexels.com/photos/3477224/pexels-photo-3477224.jpeg?auto=compress&cs=tinysrgb&dpr=1&fit=crop&h=200&w=280"
            },
            "liked": false
        },
        {
            "id": 289262,
            "width": 3744,
            "height": 5616,
            "url": "https://www.pexels.com/photo/adult-body-dark-erotic-289262/",
            "photographer": "Pixabay",
            "photographer_url": "https://www.pexels.com/@pixabay",
            "photographer_id": 2659,
            "avg_color": "#392D30",
            "src": {
                "original": "https://images.pexels.com/photos/289262/pexels-photo-289262.jpeg",
                "large2x": "https://images.pexels.com/photos/289262/pexels-photo-289262.jpeg?auto=compress&cs=tinysrgb&dpr=2&h=650&w=940",
                "large": "https://images.pexels.com/photos/289262/pexels-photo-289262.jpeg?auto=compress&cs=tinysrgb&h=650&w=940",
                "medium": "https://images.pexels.com/photos/289262/pexels-photo-289262.jpeg?auto=compress&cs=tinysrgb&h=350",
                "small": "https://images.pexels.com/photos/289262/pexels-photo-289262.jpeg?auto=compress&cs=tinysrgb&h=130",
                "portrait": "https://images.pexels.com/photos/289262/pexels-photo-289262.jpeg?auto=compress&cs=tinysrgb&fit=crop&h=1200&w=800",
                "landscape": "https://images.pexels.com/photos/289262/pexels-photo-289262.jpeg?auto=compress&cs=tinysrgb&fit=crop&h=627&w=1200",
                "tiny": "https://images.pexels.com/photos/289262/pexels-photo-289262.jpeg?auto=compress&cs=tinysrgb&dpr=1&fit=crop&h=200&w=280"
            },
            "liked": false
        },
        {
            "id": 1595647,
            "width": 2448,
            "height": 3264,
            "url": "https://www.pexels.com/photo/woman-holding-two-kitchen-knives-1595647/",
            "photographer": "Alexander Krivitskiy",
            "photographer_url": "https://www.pexels.com/@krivitskiy",
            "photographer_id": 314412,
            "avg_color": "#3F4141",
            "src": {
                "original": "https://images.pexels.com/photos/1595647/pexels-photo-1595647.jpeg",
                "large2x": "https://images.pexels.com/photos/1595647/pexels-photo-1595647.jpeg?auto=compress&cs=tinysrgb&dpr=2&h=650&w=940",
                "large": "https://images.pexels.com/photos/1595647/pexels-photo-1595647.jpeg?auto=compress&cs=tinysrgb&h=650&w=940",
                "medium": "https://images.pexels.com/photos/1595647/pexels-photo-1595647.jpeg?auto=compress&cs=tinysrgb&h=350",
                "small": "https://images.pexels.com/photos/1595647/pexels-photo-1595647.jpeg?auto=compress&cs=tinysrgb&h=130",
                "portrait": "https://images.pexels.com/photos/1595647/pexels-photo-1595647.jpeg?auto=compress&cs=tinysrgb&fit=crop&h=1200&w=800",
                "landscape": "https://images.pexels.com/photos/1595647/pexels-photo-1595647.jpeg?auto=compress&cs=tinysrgb&fit=crop&h=627&w=1200",
                "tiny": "https://images.pexels.com/photos/1595647/pexels-photo-1595647.jpeg?auto=compress&cs=tinysrgb&dpr=1&fit=crop&h=200&w=280"
            },
            "liked": false
        },
        {
            "id": 674337,
            "width": 5184,
            "height": 3456,
            "url": "https://www.pexels.com/photo/woman-in-white-panty-674337/",
            "photographer": "Tofros.com",
            "photographer_url": "https://www.pexels.com/@tofros-com-83191",
            "photographer_id": 83191,
            "avg_color": "#7A5048",
            "src": {
                "original": "https://images.pexels.com/photos/674337/pexels-photo-674337.jpeg",
                "large2x": "https://images.pexels.com/photos/674337/pexels-photo-674337.jpeg?auto=compress&cs=tinysrgb&dpr=2&h=650&w=940",
                "large": "https://images.pexels.com/photos/674337/pexels-photo-674337.jpeg?auto=compress&cs=tinysrgb&h=650&w=940",
                "medium": "https://images.pexels.com/photos/674337/pexels-photo-674337.jpeg?auto=compress&cs=tinysrgb&h=350",
                "small": "https://images.pexels.com/photos/674337/pexels-photo-674337.jpeg?auto=compress&cs=tinysrgb&h=130",
                "portrait": "https://images.pexels.com/photos/674337/pexels-photo-674337.jpeg?auto=compress&cs=tinysrgb&fit=crop&h=1200&w=800",
                "landscape": "https://images.pexels.com/photos/674337/pexels-photo-674337.jpeg?auto=compress&cs=tinysrgb&fit=crop&h=627&w=1200",
                "tiny": "https://images.pexels.com/photos/674337/pexels-photo-674337.jpeg?auto=compress&cs=tinysrgb&dpr=1&fit=crop&h=200&w=280"
            },
            "liked": false
        },
        {
            "id": 1157936,
            "width": 3872,
            "height": 2592,
            "url": "https://www.pexels.com/photo/man-and-woman-nude-lying-together-1157936/",
            "photographer": "Alexander Krivitskiy",
            "photographer_url": "https://www.pexels.com/@krivitskiy",
            "photographer_id": 314412,
            "avg_color": "#121212",
            "src": {
                "original": "https://images.pexels.com/photos/1157936/pexels-photo-1157936.jpeg",
                "large2x": "https://images.pexels.com/photos/1157936/pexels-photo-1157936.jpeg?auto=compress&cs=tinysrgb&dpr=2&h=650&w=940",
                "large": "https://images.pexels.com/photos/1157936/pexels-photo-1157936.jpeg?auto=compress&cs=tinysrgb&h=650&w=940",
                "medium": "https://images.pexels.com/photos/1157936/pexels-photo-1157936.jpeg?auto=compress&cs=tinysrgb&h=350",
                "small": "https://images.pexels.com/photos/1157936/pexels-photo-1157936.jpeg?auto=compress&cs=tinysrgb&h=130",
                "portrait": "https://images.pexels.com/photos/1157936/pexels-photo-1157936.jpeg?auto=compress&cs=tinysrgb&fit=crop&h=1200&w=800",
                "landscape": "https://images.pexels.com/photos/1157936/pexels-photo-1157936.jpeg?auto=compress&cs=tinysrgb&fit=crop&h=627&w=1200",
                "tiny": "https://images.pexels.com/photos/1157936/pexels-photo-1157936.jpeg?auto=compress&cs=tinysrgb&dpr=1&fit=crop&h=200&w=280"
            },
            "liked": false
        },
        {
            "id": 1988698,
            "width": 2592,
            "height": 3888,
            "url": "https://www.pexels.com/photo/man-raising-his-hands-with-heart-illustration-1988698/",
            "photographer": "Isabella Mariana",
            "photographer_url": "https://www.pexels.com/@isabellamariana",
            "photographer_id": 1022505,
            "avg_color": "#B3448",
            "src": {
                "original": "https://images.pexels.com/photos/1988698/pexels-photo-1988698.jpeg",
                "large2x": "https://images.pexels.com/photos/1988698/pexels-photo-1988698.jpeg?auto=compress&cs=tinysrgb&dpr=2&h=650&w=940",
                "large": "https://images.pexels.com/photos/1988698/pexels-photo-1988698.jpeg?auto=compress&cs=tinysrgb&h=650&w=940",
                "medium": "https://images.pexels.com/photos/1988698/pexels-photo-1988698.jpeg?auto=compress&cs=tinysrgb&h=350",
                "small": "https://images.pexels.com/photos/1988698/pexels-photo-1988698.jpeg?auto=compress&cs=tinysrgb&h=130",
                "portrait": "https://images.pexels.com/photos/1988698/pexels-photo-1988698.jpeg?auto=compress&cs=tinysrgb&fit=crop&h=1200&w=800",
                "landscape": "https://images.pexels.com/photos/1988698/pexels-photo-1988698.jpeg?auto=compress&cs=tinysrgb&fit=crop&h=627&w=1200",
                "tiny": "https://images.pexels.com/photos/1988698/pexels-photo-1988698.jpeg?auto=compress&cs=tinysrgb&dpr=1&fit=crop&h=200&w=280"
            },
            "liked": false
        },
        {
            "id": 230986,
            "width": 4272,
            "height": 2848,
            "url": "https://www.pexels.com/photo/grayscale-photo-of-naked-woman-230986/",
            "photographer": "John Rocha",
            "photographer_url": "https://www.pexels.com/@john-rocha-62772",
            "photographer_id": 62772,
            "avg_color": "#131313",
            "src": {
                "original": "https://images.pexels.com/photos/230986/pexels-photo-230986.jpeg",
                "large2x": "https://images.pexels.com/photos/230986/pexels-photo-230986.jpeg?auto=compress&cs=tinysrgb&dpr=2&h=650&w=940",
                "large": "https://images.pexels.com/photos/230986/pexels-photo-230986.jpeg?auto=compress&cs=tinysrgb&h=650&w=940",
                "medium": "https://images.pexels.com/photos/230986/pexels-photo-230986.jpeg?auto=compress&cs=tinysrgb&h=350",
                "small": "https://images.pexels.com/photos/230986/pexels-photo-230986.jpeg?auto=compress&cs=tinysrgb&h=130",
                "portrait": "https://images.pexels.com/photos/230986/pexels-photo-230986.jpeg?auto=compress&cs=tinysrgb&fit=crop&h=1200&w=800",
                "landscape": "https://images.pexels.com/photos/230986/pexels-photo-230986.jpeg?auto=compress&cs=tinysrgb&fit=crop&h=627&w=1200",
                "tiny": "https://images.pexels.com/photos/230986/pexels-photo-230986.jpeg?auto=compress&cs=tinysrgb&dpr=1&fit=crop&h=200&w=280"
            },
            "liked": false
        },
        {
            "id": 1700767,
            "width": 4912,
            "height": 7360,
            "url": "https://www.pexels.com/photo/woman-wearing-white-bra-holding-man-s-chest-1700767/",
            "photographer": "Ana Maria Moroz",
            "photographer_url": "https://www.pexels.com/@ana-maria-moroz-313906",
            "photographer_id": 313906,
            "avg_color": "#3E3634",
            "src": {
                "original": "https://images.pexels.com/photos/1700767/pexels-photo-1700767.jpeg",
                "large2x": "https://images.pexels.com/photos/1700767/pexels-photo-1700767.jpeg?auto=compress&cs=tinysrgb&dpr=2&h=650&w=940",
                "large": "https://images.pexels.com/photos/1700767/pexels-photo-1700767.jpeg?auto=compress&cs=tinysrgb&h=650&w=940",
                "medium": "https://images.pexels.com/photos/1700767/pexels-photo-1700767.jpeg?auto=compress&cs=tinysrgb&h=350",
                "small": "https://images.pexels.com/photos/1700767/pexels-photo-1700767.jpeg?auto=compress&cs=tinysrgb&h=130",
                "portrait": "https://images.pexels.com/photos/1700767/pexels-photo-1700767.jpeg?auto=compress&cs=tinysrgb&fit=crop&h=1200&w=800",
                "landscape": "https://images.pexels.com/photos/1700767/pexels-photo-1700767.jpeg?auto=compress&cs=tinysrgb&fit=crop&h=627&w=1200",
                "tiny": "https://images.pexels.com/photos/1700767/pexels-photo-1700767.jpeg?auto=compress&cs=tinysrgb&dpr=1&fit=crop&h=200&w=280"
            },
            "liked": false
        },
        {
            "id": 289268,
            "width": 3744,
            "height": 5616,
            "url": "https://www.pexels.com/photo/adult-attractive-beautiful-bikini-289268/",
            "photographer": "Pixabay",
            "photographer_url": "https://www.pexels.com/@pixabay",
            "photographer_id": 2659,
            "avg_color": "#9F9DA1",
            "src": {
                "original": "https://images.pexels.com/photos/289268/pexels-photo-289268.jpeg",
                "large2x": "https://images.pexels.com/photos/289268/pexels-photo-289268.jpeg?auto=compress&cs=tinysrgb&dpr=2&h=650&w=940",
                "large": "https://images.pexels.com/photos/289268/pexels-photo-289268.jpeg?auto=compress&cs=tinysrgb&h=650&w=940",
                "medium": "https://images.pexels.com/photos/289268/pexels-photo-289268.jpeg?auto=compress&cs=tinysrgb&h=350",
                "small": "https://images.pexels.com/photos/289268/pexels-photo-289268.jpeg?auto=compress&cs=tinysrgb&h=130",
                "portrait": "https://images.pexels.com/photos/289268/pexels-photo-289268.jpeg?auto=compress&cs=tinysrgb&fit=crop&h=1200&w=800",
                "landscape": "https://images.pexels.com/photos/289268/pexels-photo-289268.jpeg?auto=compress&cs=tinysrgb&fit=crop&h=627&w=1200",
                "tiny": "https://images.pexels.com/photos/289268/pexels-photo-289268.jpeg?auto=compress&cs=tinysrgb&dpr=1&fit=crop&h=200&w=280"
            },
            "liked": false
        },
        {
            "id": 1229356,
            "width": 4608,
            "height": 3456,
            "url": "https://www.pexels.com/photo/man-holding-black-dumbbell-1229356/",
            "photographer": "Anush Gorak",
            "photographer_url": "https://www.pexels.com/@anush",
            "photographer_id": 505835,
            "avg_color": "#2A2A2A",
            "src": {
                "original": "https://images.pexels.com/photos/1229356/pexels-photo-1229356.jpeg",
                "large2x": "https://images.pexels.com/photos/1229356/pexels-photo-1229356.jpeg?auto=compress&cs=tinysrgb&dpr=2&h=650&w=940",
                "large": "https://images.pexels.com/photos/1229356/pexels-photo-1229356.jpeg?auto=compress&cs=tinysrgb&h=650&w=940",
                "medium": "https://images.pexels.com/photos/1229356/pexels-photo-1229356.jpeg?auto=compress&cs=tinysrgb&h=350",
                "small": "https://images.pexels.com/photos/1229356/pexels-photo-1229356.jpeg?auto=compress&cs=tinysrgb&h=130",
                "portrait": "https://images.pexels.com/photos/1229356/pexels-photo-1229356.jpeg?auto=compress&cs=tinysrgb&fit=crop&h=1200&w=800",
                "landscape": "https://images.pexels.com/photos/1229356/pexels-photo-1229356.jpeg?auto=compress&cs=tinysrgb&fit=crop&h=627&w=1200",
                "tiny": "https://images.pexels.com/photos/1229356/pexels-photo-1229356.jpeg?auto=compress&cs=tinysrgb&dpr=1&fit=crop&h=200&w=280"
            },
            "liked": false
        },
        {
            "id": 597200,
            "width": 5725,
            "height": 3735,
            "url": "https://www.pexels.com/photo/woman-lying-on-bed-597200/",
            "photographer": "Valeria Boltneva",
            "photographer_url": "https://www.pexels.com/@valeriya",
            "photographer_id": 665,
            "avg_color": "#504038",
            "src": {
                "original": "https://images.pexels.com/photos/597200/pexels-photo-597200.jpeg",
                "large2x": "https://images.pexels.com/photos/597200/pexels-photo-597200.jpeg?auto=compress&cs=tinysrgb&dpr=2&h=650&w=940",
                "large": "https://images.pexels.com/photos/597200/pexels-photo-597200.jpeg?auto=compress&cs=tinysrgb&h=650&w=940",
                "medium": "https://images.pexels.com/photos/597200/pexels-photo-597200.jpeg?auto=compress&cs=tinysrgb&h=350",
                "small": "https://images.pexels.com/photos/597200/pexels-photo-597200.jpeg?auto=compress&cs=tinysrgb&h=130",
                "portrait": "https://images.pexels.com/photos/597200/pexels-photo-597200.jpeg?auto=compress&cs=tinysrgb&fit=crop&h=1200&w=800",
                "landscape": "https://images.pexels.com/photos/597200/pexels-photo-597200.jpeg?auto=compress&cs=tinysrgb&fit=crop&h=627&w=1200",
                "tiny": "https://images.pexels.com/photos/597200/pexels-photo-597200.jpeg?auto=compress&cs=tinysrgb&dpr=1&fit=crop&h=200&w=280"
            },
            "liked": false
        },
        {
            "id": 848448,
            "width": 5616,
            "height": 3744,
            "url": "https://www.pexels.com/photo/photo-of-a-topless-woman-848448/",
            "photographer": "Evelyn Chong",
            "photographer_url": "https://www.pexels.com/@evelyn-chong-253251",
            "photographer_id": 253251,
            "avg_color": "#FC9",
            "src": {
                "original": "https://images.pexels.com/photos/848448/pexels-photo-848448.jpeg",
                "large2x": "https://images.pexels.com/photos/848448/pexels-photo-848448.jpeg?auto=compress&cs=tinysrgb&dpr=2&h=650&w=940",
                "large": "https://images.pexels.com/photos/848448/pexels-photo-848448.jpeg?auto=compress&cs=tinysrgb&h=650&w=940",
                "medium": "https://images.pexels.com/photos/848448/pexels-photo-848448.jpeg?auto=compress&cs=tinysrgb&h=350",
                "small": "https://images.pexels.com/photos/848448/pexels-photo-848448.jpeg?auto=compress&cs=tinysrgb&h=130",
                "portrait": "https://images.pexels.com/photos/848448/pexels-photo-848448.jpeg?auto=compress&cs=tinysrgb&fit=crop&h=1200&w=800",
                "landscape": "https://images.pexels.com/photos/848448/pexels-photo-848448.jpeg?auto=compress&cs=tinysrgb&fit=crop&h=627&w=1200",
                "tiny": "https://images.pexels.com/photos/848448/pexels-photo-848448.jpeg?auto=compress&cs=tinysrgb&dpr=1&fit=crop&h=200&w=280"
            },
            "liked": false
        },
        {
            "id": 270912,
            "width": 1393,
            "height": 2048,
            "url": "https://www.pexels.com/photo/adult-art-beauty-black-and-white-270912/",
            "photographer": "Pixabay",
            "photographer_url": "https://www.pexels.com/@pixabay",
            "photographer_id": 2659,
            "avg_color": "#333231",
            "src": {
                "original": "https://images.pexels.com/photos/270912/pexels-photo-270912.jpeg",
                "large2x": "https://images.pexels.com/photos/270912/pexels-photo-270912.jpeg?auto=compress&cs=tinysrgb&dpr=2&h=650&w=940",
                "large": "https://images.pexels.com/photos/270912/pexels-photo-270912.jpeg?auto=compress&cs=tinysrgb&h=650&w=940",
                "medium": "https://images.pexels.com/photos/270912/pexels-photo-270912.jpeg?auto=compress&cs=tinysrgb&h=350",
                "small": "https://images.pexels.com/photos/270912/pexels-photo-270912.jpeg?auto=compress&cs=tinysrgb&h=130",
                "portrait": "https://images.pexels.com/photos/270912/pexels-photo-270912.jpeg?auto=compress&cs=tinysrgb&fit=crop&h=1200&w=800",
                "landscape": "https://images.pexels.com/photos/270912/pexels-photo-270912.jpeg?auto=compress&cs=tinysrgb&fit=crop&h=627&w=1200",
                "tiny": "https://images.pexels.com/photos/270912/pexels-photo-270912.jpeg?auto=compress&cs=tinysrgb&dpr=1&fit=crop&h=200&w=280"
            },
            "liked": false
        }
    ],
    "total_results": 8000,
    "next_page": "https://api.pexels.com/v1/search/?page=2&per_page=15&query=nude"
}